<?xml version="1.0" encoding="utf-8"?>
<COLLADA xmlns="http://www.collada.org/2005/11/COLLADASchema" version="1.4.1">
  <asset><contributor><author></author><authoring_tool>FBX COLLADA exporter</authoring_tool><comments></comments></contributor><created>2020-03-14T17:22:29Z</created><keywords></keywords><modified>2020-03-14T17:22:29Z</modified><revision></revision><subject></subject><title></title><unit meter="0.010000" name="centimeter"></unit><up_axis>Z_UP</up_axis></asset>
  <library_materials>
    <material id="Material #36" name="Material #36">
      <instance_effect url="#Material #36-fx"/>
    </material>
    <material id="Material #38" name="Material #38">
      <instance_effect url="#Material #38-fx"/>
    </material>
    <material id="Material #37" name="Material #37">
      <instance_effect url="#Material #37-fx"/>
    </material>
    <material id="Material #35 Slot #4" name="Material #35 Slot #4">
      <instance_effect url="#Material #35 Slot #4-fx"/>
    </material>
    <material id="Material #35 Slot #5" name="Material #35 Slot #5">
      <instance_effect url="#Material #35 Slot #5-fx"/>
    </material>
    <material id="Material #35 Slot #6" name="Material #35 Slot #6">
      <instance_effect url="#Material #35 Slot #6-fx"/>
    </material>
    <material id="Material #35 Slot #7" name="Material #35 Slot #7">
      <instance_effect url="#Material #35 Slot #7-fx"/>
    </material>
    <material id="Material #35 Slot #8" name="Material #35 Slot #8">
      <instance_effect url="#Material #35 Slot #8-fx"/>
    </material>
    <material id="Material #35 Slot #9" name="Material #35 Slot #9">
      <instance_effect url="#Material #35 Slot #9-fx"/>
    </material>
    <material id="Material #35 Slot #10" name="Material #35 Slot #10">
      <instance_effect url="#Material #35 Slot #10-fx"/>
    </material>
  </library_materials>
  <library_effects>
    <effect id="Material #36-fx" name="Material #36">
      <profile_COMMON>
        <technique sid="standard">
          <phong>
            <emission>
              <color sid="emission">0.000000  0.000000 0.000000 1.000000</color>
            </emission>
            <ambient>
              <color sid="ambient">0.196078  0.196078 0.196078 1.000000</color>
            </ambient>
            <diffuse>
              <color sid="diffuse">0.196078  0.196078 0.196078 1.000000</color>
            </diffuse>
            <specular>
              <color sid="specular">0.000000  0.000000 0.000000 1.000000</color>
            </specular>
            <shininess>
              <float sid="shininess">2.000000</float>
            </shininess>
            <reflective>
              <color sid="reflective">0.000000  0.000000 0.000000 1.000000</color>
            </reflective>
            <reflectivity>
              <float sid="reflectivity">1.000000</float>
            </reflectivity>
            <transparent opaque="RGB_ZERO">
              <color sid="transparent">1.000000  1.000000 1.000000 1.000000</color>
            </transparent>
            <transparency>
              <float sid="transparency">0.000000</float>
            </transparency>
          </phong>
        </technique>
      </profile_COMMON>
    </effect>
    <effect id="Material #38-fx" name="Material #38">
      <profile_COMMON>
        <technique sid="standard">
          <phong>
            <emission>
              <color sid="emission">0.000000  0.000000 0.000000 1.000000</color>
            </emission>
            <ambient>
              <color sid="ambient">0.098039  0.098039 0.098039 1.000000</color>
            </ambient>
            <diffuse>
              <color sid="diffuse">0.098039  0.098039 0.098039 1.000000</color>
            </diffuse>
            <specular>
              <color sid="specular">0.000000  0.000000 0.000000 1.000000</color>
            </specular>
            <shininess>
              <float sid="shininess">2.000000</float>
            </shininess>
            <reflective>
              <color sid="reflective">0.000000  0.000000 0.000000 1.000000</color>
            </reflective>
            <reflectivity>
              <float sid="reflectivity">1.000000</float>
            </reflectivity>
            <transparent opaque="RGB_ZERO">
              <color sid="transparent">1.000000  1.000000 1.000000 1.000000</color>
            </transparent>
            <transparency>
              <float sid="transparency">0.000000</float>
            </transparency>
          </phong>
        </technique>
      </profile_COMMON>
    </effect>
    <effect id="Material #37-fx" name="Material #37">
      <profile_COMMON>
        <technique sid="standard">
          <phong>
            <emission>
              <color sid="emission">0.000000  0.000000 0.000000 1.000000</color>
            </emission>
            <ambient>
              <color sid="ambient">0.588000  0.588000 0.588000 1.000000</color>
            </ambient>
            <diffuse>
              <color sid="diffuse">0.588000  0.588000 0.588000 1.000000</color>
            </diffuse>
            <specular>
              <color sid="specular">0.000000  0.000000 0.000000 1.000000</color>
            </specular>
            <shininess>
              <float sid="shininess">2.000000</float>
            </shininess>
            <reflective>
              <color sid="reflective">0.000000  0.000000 0.000000 1.000000</color>
            </reflective>
            <reflectivity>
              <float sid="reflectivity">1.000000</float>
            </reflectivity>
            <transparent opaque="RGB_ZERO">
              <color sid="transparent">1.000000  1.000000 1.000000 1.000000</color>
            </transparent>
            <transparency>
              <float sid="transparency">0.000000</float>
            </transparency>
          </phong>
        </technique>
      </profile_COMMON>
    </effect>
    <effect id="Material #35 Slot #4-fx" name="Material #35 Slot #4">
      <profile_COMMON>
        <technique sid="standard">
          <phong>
            <emission>
              <color sid="emission">0.000000  0.000000 0.000000 1.000000</color>
            </emission>
            <ambient>
              <color sid="ambient">0.200000  0.200000 0.200000 1.000000</color>
            </ambient>
            <diffuse>
              <color sid="diffuse">0.000000  0.000000 0.000000 1.000000</color>
            </diffuse>
            <specular>
              <color sid="specular">0.200000  0.200000 0.200000 1.000000</color>
            </specular>
            <shininess>
              <float sid="shininess">20.000000</float>
            </shininess>
            <reflective>
              <color sid="reflective">0.000000  0.000000 0.000000 1.000000</color>
            </reflective>
            <reflectivity>
              <float sid="reflectivity">1.000000</float>
            </reflectivity>
            <transparent opaque="RGB_ZERO">
              <color sid="transparent">0.000000  0.000000 0.000000 1.000000</color>
            </transparent>
            <transparency>
              <float sid="transparency">0.000000</float>
            </transparency>
          </phong>
        </technique>
      </profile_COMMON>
    </effect>
    <effect id="Material #35 Slot #5-fx" name="Material #35 Slot #5">
      <profile_COMMON>
        <technique sid="standard">
          <phong>
            <emission>
              <color sid="emission">0.000000  0.000000 0.000000 1.000000</color>
            </emission>
            <ambient>
              <color sid="ambient">0.200000  0.200000 0.200000 1.000000</color>
            </ambient>
            <diffuse>
              <color sid="diffuse">0.000000  0.000000 0.000000 1.000000</color>
            </diffuse>
            <specular>
              <color sid="specular">0.200000  0.200000 0.200000 1.000000</color>
            </specular>
            <shininess>
              <float sid="shininess">20.000000</float>
            </shininess>
            <reflective>
              <color sid="reflective">0.000000  0.000000 0.000000 1.000000</color>
            </reflective>
            <reflectivity>
              <float sid="reflectivity">1.000000</float>
            </reflectivity>
            <transparent opaque="RGB_ZERO">
              <color sid="transparent">0.000000  0.000000 0.000000 1.000000</color>
            </transparent>
            <transparency>
              <float sid="transparency">0.000000</float>
            </transparency>
          </phong>
        </technique>
      </profile_COMMON>
    </effect>
    <effect id="Material #35 Slot #6-fx" name="Material #35 Slot #6">
      <profile_COMMON>
        <technique sid="standard">
          <phong>
            <emission>
              <color sid="emission">0.000000  0.000000 0.000000 1.000000</color>
            </emission>
            <ambient>
              <color sid="ambient">0.200000  0.200000 0.200000 1.000000</color>
            </ambient>
            <diffuse>
              <color sid="diffuse">0.000000  0.000000 0.000000 1.000000</color>
            </diffuse>
            <specular>
              <color sid="specular">0.200000  0.200000 0.200000 1.000000</color>
            </specular>
            <shininess>
              <float sid="shininess">20.000000</float>
            </shininess>
            <reflective>
              <color sid="reflective">0.000000  0.000000 0.000000 1.000000</color>
            </reflective>
            <reflectivity>
              <float sid="reflectivity">1.000000</float>
            </reflectivity>
            <transparent opaque="RGB_ZERO">
              <color sid="transparent">0.000000  0.000000 0.000000 1.000000</color>
            </transparent>
            <transparency>
              <float sid="transparency">0.000000</float>
            </transparency>
          </phong>
        </technique>
      </profile_COMMON>
    </effect>
    <effect id="Material #35 Slot #7-fx" name="Material #35 Slot #7">
      <profile_COMMON>
        <technique sid="standard">
          <phong>
            <emission>
              <color sid="emission">0.000000  0.000000 0.000000 1.000000</color>
            </emission>
            <ambient>
              <color sid="ambient">0.200000  0.200000 0.200000 1.000000</color>
            </ambient>
            <diffuse>
              <color sid="diffuse">0.000000  0.000000 0.000000 1.000000</color>
            </diffuse>
            <specular>
              <color sid="specular">0.200000  0.200000 0.200000 1.000000</color>
            </specular>
            <shininess>
              <float sid="shininess">20.000000</float>
            </shininess>
            <reflective>
              <color sid="reflective">0.000000  0.000000 0.000000 1.000000</color>
            </reflective>
            <reflectivity>
              <float sid="reflectivity">1.000000</float>
            </reflectivity>
            <transparent opaque="RGB_ZERO">
              <color sid="transparent">0.000000  0.000000 0.000000 1.000000</color>
            </transparent>
            <transparency>
              <float sid="transparency">0.000000</float>
            </transparency>
          </phong>
        </technique>
      </profile_COMMON>
    </effect>
    <effect id="Material #35 Slot #8-fx" name="Material #35 Slot #8">
      <profile_COMMON>
        <technique sid="standard">
          <phong>
            <emission>
              <color sid="emission">0.000000  0.000000 0.000000 1.000000</color>
            </emission>
            <ambient>
              <color sid="ambient">0.200000  0.200000 0.200000 1.000000</color>
            </ambient>
            <diffuse>
              <color sid="diffuse">0.000000  0.000000 0.000000 1.000000</color>
            </diffuse>
            <specular>
              <color sid="specular">0.200000  0.200000 0.200000 1.000000</color>
            </specular>
            <shininess>
              <float sid="shininess">20.000000</float>
            </shininess>
            <reflective>
              <color sid="reflective">0.000000  0.000000 0.000000 1.000000</color>
            </reflective>
            <reflectivity>
              <float sid="reflectivity">1.000000</float>
            </reflectivity>
            <transparent opaque="RGB_ZERO">
              <color sid="transparent">0.000000  0.000000 0.000000 1.000000</color>
            </transparent>
            <transparency>
              <float sid="transparency">0.000000</float>
            </transparency>
          </phong>
        </technique>
      </profile_COMMON>
    </effect>
    <effect id="Material #35 Slot #9-fx" name="Material #35 Slot #9">
      <profile_COMMON>
        <technique sid="standard">
          <phong>
            <emission>
              <color sid="emission">0.000000  0.000000 0.000000 1.000000</color>
            </emission>
            <ambient>
              <color sid="ambient">0.200000  0.200000 0.200000 1.000000</color>
            </ambient>
            <diffuse>
              <color sid="diffuse">0.000000  0.000000 0.000000 1.000000</color>
            </diffuse>
            <specular>
              <color sid="specular">0.200000  0.200000 0.200000 1.000000</color>
            </specular>
            <shininess>
              <float sid="shininess">20.000000</float>
            </shininess>
            <reflective>
              <color sid="reflective">0.000000  0.000000 0.000000 1.000000</color>
            </reflective>
            <reflectivity>
              <float sid="reflectivity">1.000000</float>
            </reflectivity>
            <transparent opaque="RGB_ZERO">
              <color sid="transparent">0.000000  0.000000 0.000000 1.000000</color>
            </transparent>
            <transparency>
              <float sid="transparency">0.000000</float>
            </transparency>
          </phong>
        </technique>
      </profile_COMMON>
    </effect>
    <effect id="Material #35 Slot #10-fx" name="Material #35 Slot #10">
      <profile_COMMON>
        <technique sid="standard">
          <phong>
            <emission>
              <color sid="emission">0.000000  0.000000 0.000000 1.000000</color>
            </emission>
            <ambient>
              <color sid="ambient">0.200000  0.200000 0.200000 1.000000</color>
            </ambient>
            <diffuse>
              <color sid="diffuse">0.000000  0.000000 0.000000 1.000000</color>
            </diffuse>
            <specular>
              <color sid="specular">0.200000  0.200000 0.200000 1.000000</color>
            </specular>
            <shininess>
              <float sid="shininess">20.000000</float>
            </shininess>
            <reflective>
              <color sid="reflective">0.000000  0.000000 0.000000 1.000000</color>
            </reflective>
            <reflectivity>
              <float sid="reflectivity">1.000000</float>
            </reflectivity>
            <transparent opaque="RGB_ZERO">
              <color sid="transparent">0.000000  0.000000 0.000000 1.000000</color>
            </transparent>
            <transparency>
              <float sid="transparency">0.000000</float>
            </transparency>
          </phong>
        </technique>
      </profile_COMMON>
    </effect>
  </library_effects>
  <library_geometries>
    <geometry id="SM_BoardProjectors_Tron_01_A_1-lib" name="SM_BoardProjectors_Tron_01_A_1Mesh">
      <mesh>
        <source id="SM_BoardProjectors_Tron_01_A_1-POSITION">
          <float_array id="SM_BoardProjectors_Tron_01_A_1-POSITION-array" count="576">
-582.270081 -257.579346 10.000031
-582.269958 -486.117371 10.000031
-561.045959 -467.164886 10.000031
-562.316467 -257.505524 10.000031
296.252136 -514.748047 10.000031
554.372009 -514.748108 10.000031
532.904053 -496.106598 10.000031
296.250580 -497.828308 10.000031
-554.372009 -514.748108 10.000031
-532.904053 -496.106598 10.000031
582.270081 -486.117371 10.000031
561.046021 -467.164886 10.000031
-296.246185 -514.748047 10.000031
-296.246155 -497.828308 10.000031
582.270081 -257.579346 10.000031
562.316467 -257.505524 10.000031
-561.045959 467.164886 10.000031
-582.269958 486.117371 10.000031
-582.270081 257.579346 10.000031
-562.316467 257.505524 10.000031
532.904053 496.106598 10.000031
554.372009 514.748108 10.000031
296.252136 514.748047 10.000031
296.250580 497.828308 10.000031
-554.372009 514.748108 10.000031
-532.904053 496.106598 10.000031
561.046021 467.164886 10.000031
582.270020 486.117371 10.000031
-296.246185 514.748047 10.000031
-296.246155 497.828308 10.000031
582.270081 257.579346 10.000031
562.316467 257.505524 10.000031
-582.270081 -257.579346 0.000031
-582.269958 -486.117371 0.000031
-561.045959 -467.164886 0.000031
-562.316467 -257.505524 0.000031
296.252136 -514.748047 0.000031
554.372009 -514.748108 0.000031
532.904053 -496.106598 0.000031
296.250580 -497.828308 0.000031
-554.372009 -514.748108 0.000031
-532.904053 -496.106598 0.000031
582.270081 -486.117371 0.000031
561.046021 -467.164886 0.000031
-296.246185 -514.748047 0.000031
-296.246155 -497.828308 0.000031
582.270081 -257.579346 0.000031
562.316467 -257.505524 0.000031
-561.045959 467.164886 0.000031
-582.269958 486.117371 0.000031
-582.270081 257.579346 0.000031
-562.316467 257.505524 0.000031
532.904053 496.106598 0.000031
554.372009 514.748108 0.000031
296.252136 514.748047 0.000031
296.250580 497.828308 0.000031
-554.372009 514.748108 0.000031
-532.904053 496.106598 0.000031
561.046021 467.164886 0.000031
582.270020 486.117371 0.000031
-296.246185 514.748047 0.000031
-296.246155 497.828308 0.000031
582.270081 257.579346 0.000031
562.316467 257.505524 0.000031
-562.316406 -257.505493 79.018517
-582.270020 -257.579346 79.018517
-561.045898 -467.164856 79.018517
-582.269897 -486.117310 79.018517
296.250549 -497.828247 79.018517
296.252136 -514.748047 79.018517
532.904053 -496.106567 79.018517
554.372009 -514.748047 79.018517
-532.904053 -496.106567 79.018517
-554.371948 -514.748047 79.018517
561.046021 -467.164856 79.018517
582.270020 -486.117310 79.018517
-296.246155 497.828247 79.018517
-296.246155 514.748047 79.018517
562.316406 257.505493 79.018517
582.270020 257.579346 79.018517
-296.246155 -514.748047 79.018517
-296.246155 -497.828247 79.018517
582.270020 -257.579315 79.018517
562.316406 -257.505493 79.018517
-582.269897 486.117310 79.018517
-561.045898 467.164856 79.018517
-582.270020 257.579346 79.018517
-562.316406 257.505493 79.018517
554.372009 514.748047 79.018517
532.904053 496.106567 79.018517
296.252136 514.748047 79.018517
296.250549 497.828247 79.018517
-554.371948 514.748047 79.018517
-532.904053 496.106567 79.018517
582.269958 486.117310 79.018517
561.046021 467.164856 79.018517
-557.316528 -262.487000 34.018532
-582.270020 -257.579346 29.018532
-557.316406 -463.834534 34.018532
-582.269897 -486.117310 29.018532
301.250122 -492.828278 34.018532
296.252136 -514.748047 29.018532
529.128723 -492.828308 34.018532
554.372009 -514.748047 29.018532
-529.128662 -492.828308 34.018532
-554.371948 -514.748047 29.018532
557.316528 -463.834534 34.018532
582.270020 -486.117310 29.018532
-301.246124 492.828278 34.018532
-296.246155 514.748047 29.018532
557.316528 262.487000 34.018532
582.270020 257.579346 29.018532
-296.246155 -514.748047 29.018532
-296.246155 -497.828247 29.018532
582.270020 -257.579315 29.018532
562.316406 -257.505493 29.018532
-582.269897 486.117310 29.018532
-557.316406 463.834534 34.018532
-582.270020 257.579346 29.018532
-562.316406 257.505493 29.018532
554.372009 514.748047 29.018532
529.128723 492.828308 34.018532
296.252136 514.748047 29.018532
296.250549 497.828247 29.018532
-554.371948 514.748047 29.018532
-529.128662 492.828308 34.018532
582.269958 486.117310 29.018532
557.316528 463.834534 34.018532
-557.316528 -262.487000 74.018517
-557.316406 -463.834534 74.018517
301.250122 -492.828278 74.018517
529.128723 -492.828308 74.018517
-529.128662 -492.828308 74.018517
557.316528 -463.834534 74.018517
-301.246124 492.828278 74.018517
557.316528 262.487000 74.018517
-301.246124 -492.828278 74.018517
557.316528 -262.487000 74.018517
-557.316406 463.834534 74.018517
-557.316528 262.487000 74.018517
529.128723 492.828308 74.018517
301.250122 492.828278 74.018517
-529.128662 492.828308 74.018517
557.316528 463.834534 74.018517
-562.316406 -257.505493 29.018532
-561.045898 -467.164856 29.018532
296.250549 -497.828247 29.018532
532.904053 -496.106567 29.018532
-532.904053 -496.106567 29.018532
561.046021 -467.164856 29.018532
-296.246155 497.828247 29.018532
562.316406 257.505493 29.018532
-301.246124 -492.828278 34.018532
557.316528 -262.487000 34.018532
-561.045898 467.164856 29.018532
-557.316528 262.487000 34.018532
532.904053 496.106567 29.018532
301.250122 492.828278 34.018532
-532.904053 496.106567 29.018532
561.046021 467.164856 29.018532
-557.316528 -267.487000 39.018532
-557.316528 -267.487000 69.018517
-557.316406 -463.834534 69.018517
-529.128662 -492.828308 69.018517
-306.246155 -492.828278 69.018517
-306.246155 -492.828278 39.018532
-529.128662 -492.828308 39.018532
-557.316406 -463.834534 39.018532
306.250122 -492.828278 39.018532
306.250122 -492.828278 69.018517
529.128723 -492.828308 69.018517
557.316528 -463.834534 69.018517
557.316528 -267.487000 69.018517
557.316528 -267.487000 39.018532
557.316528 -463.834534 39.018532
529.128723 -492.828308 39.018532
-306.246155 492.828278 39.018532
-306.246155 492.828278 69.018517
-529.128662 492.828308 69.018517
-557.316406 463.834534 69.018517
-557.316528 267.487000 69.018517
-557.316528 267.487000 39.018532
-557.316406 463.834534 39.018532
-529.128662 492.828308 39.018532
557.316528 267.487000 39.018532
557.316528 267.487000 69.018517
557.316528 463.834534 69.018517
529.128723 492.828308 69.018517
306.250122 492.828278 69.018517
306.250122 492.828278 39.018532
529.128723 492.828308 39.018532
557.316528 463.834534 39.018532
</float_array>
          <technique_common>
            <accessor source="#SM_BoardProjectors_Tron_01_A_1-POSITION-array" count="192" stride="3">
              <param name="X" type="float"/>
              <param name="Y" type="float"/>
              <param name="Z" type="float"/>
            </accessor>
          </technique_common>
        </source>
        <source id="SM_BoardProjectors_Tron_01_A_1-Normal0">
          <float_array id="SM_BoardProjectors_Tron_01_A_1-Normal0-array" count="3168">
0.000000 0.000000 1.000000
0.000000 0.000000 1.000000
0.000000 0.000000 1.000000
0.000000 0.000000 1.000000
0.000000 0.000000 1.000000
0.000000 0.000000 1.000000
0.000000 0.000000 1.000000
0.000000 0.000000 1.000000
0.000000 0.000000 1.000000
0.000000 0.000000 1.000000
0.000000 0.000000 1.000000
0.000000 0.000000 1.000000
0.000000 0.000000 1.000000
0.000000 0.000000 1.000000
0.000000 0.000000 1.000000
0.000000 0.000000 1.000000
0.000000 0.000000 1.000000
0.000000 0.000000 1.000000
0.000000 0.000000 1.000000
0.000000 0.000000 1.000000
0.000000 0.000000 1.000000
0.000000 0.000000 1.000000
0.000000 0.000000 1.000000
0.000000 0.000000 1.000000
0.000000 0.000000 1.000000
0.000000 0.000000 1.000000
0.000000 0.000000 1.000000
0.000000 0.000000 1.000000
0.000000 0.000000 1.000000
0.000000 0.000000 1.000000
0.000000 0.000000 1.000000
0.000000 0.000000 1.000000
0.000000 0.000000 1.000000
0.000000 0.000000 1.000000
0.000000 0.000000 1.000000
0.000000 0.000000 1.000000
0.000000 0.000000 1.000000
0.000000 0.000000 1.000000
0.000000 0.000000 1.000000
0.000000 0.000000 1.000000
0.000000 0.000000 1.000000
0.000000 0.000000 1.000000
0.000000 0.000000 1.000000
0.000000 0.000000 1.000000
0.000000 0.000000 1.000000
0.000000 0.000000 1.000000
0.000000 0.000000 1.000000
0.000000 0.000000 1.000000
0.000000 0.000000 1.000000
0.000000 0.000000 1.000000
0.000000 0.000000 1.000000
0.000000 0.000000 1.000000
0.000000 0.000000 1.000000
0.000000 0.000000 1.000000
0.000000 0.000000 1.000000
0.000000 0.000000 1.000000
0.000000 0.000000 1.000000
0.000000 0.000000 1.000000
0.000000 0.000000 1.000000
0.000000 0.000000 1.000000
0.000000 0.000000 1.000000
0.000000 0.000000 1.000000
0.000000 0.000000 1.000000
0.000000 0.000000 1.000000
0.000000 0.000000 1.000000
0.000000 0.000000 1.000000
0.000000 0.000000 1.000000
0.000000 0.000000 1.000000
0.000000 0.000000 1.000000
0.000000 0.000000 1.000000
0.000000 0.000000 1.000000
0.000000 0.000000 1.000000
0.000000 0.000000 -1.000000
0.000000 0.000000 -1.000000
0.000000 0.000000 -1.000000
0.000000 0.000000 -1.000000
0.000000 0.000000 -1.000000
0.000000 0.000000 -1.000000
0.000000 0.000000 -1.000000
0.000000 0.000000 -1.000000
0.000000 0.000000 -1.000000
0.000000 0.000000 -1.000000
0.000000 0.000000 -1.000000
0.000000 0.000000 -1.000000
0.000000 0.000000 -1.000000
0.000000 0.000000 -1.000000
0.000000 0.000000 -1.000000
0.000000 0.000000 -1.000000
0.000000 0.000000 -1.000000
0.000000 0.000000 -1.000000
0.000000 0.000000 -1.000000
0.000000 0.000000 -1.000000
0.000000 0.000000 -1.000000
0.000000 0.000000 -1.000000
0.000000 0.000000 -1.000000
0.000000 0.000000 -1.000000
0.000000 0.000000 -1.000000
0.000000 0.000000 -1.000000
0.000000 0.000000 -1.000000
0.000000 0.000000 -1.000000
0.000000 0.000000 -1.000000
0.000000 0.000000 -1.000000
0.000000 0.000000 -1.000000
0.000000 0.000000 -1.000000
0.000000 0.000000 -1.000000
0.000000 0.000000 -1.000000
0.000000 0.000000 -1.000000
0.000000 0.000000 -1.000000
0.000000 0.000000 -1.000000
0.000000 0.000000 -1.000000
0.000000 0.000000 -1.000000
0.000000 0.000000 -1.000000
0.000000 0.000000 -1.000000
0.000000 0.000000 -1.000000
0.000000 0.000000 -1.000000
0.000000 0.000000 -1.000000
0.000000 0.000000 -1.000000
0.000000 0.000000 -1.000000
0.000000 0.000000 -1.000000
0.000000 0.000000 -1.000000
0.000000 0.000000 -1.000000
0.000000 0.000000 -1.000000
0.000000 0.000000 -1.000000
0.000000 0.000000 -1.000000
0.000000 0.000000 -1.000000
0.000000 0.000000 -1.000000
0.000000 0.000000 -1.000000
0.000000 0.000000 -1.000000
0.000000 0.000000 -1.000000
0.000000 0.000000 -1.000000
0.000000 0.000000 -1.000000
0.000000 0.000000 -1.000000
0.000000 0.000000 -1.000000
0.000000 0.000000 -1.000000
0.000000 0.000000 -1.000000
0.000000 0.000000 -1.000000
0.000000 0.000000 -1.000000
0.000000 0.000000 -1.000000
0.000000 0.000000 -1.000000
0.000000 0.000000 -1.000000
0.000000 0.000000 -1.000000
0.000000 0.000000 -1.000000
0.000000 0.000000 -1.000000
0.000000 0.000000 -1.000000
0.999982 0.006060 0.000000
0.925394 0.379008 0.000000
0.925394 0.379008 0.000000
0.999982 0.006060 0.000000
0.925394 0.379008 0.000000
0.999982 0.006060 0.000000
-0.003700 0.999993 0.000000
-0.003700 0.999993 0.000000
-0.003700 0.999993 0.000000
-0.003700 0.999993 0.000000
-0.003700 0.999993 0.000000
-0.003700 0.999993 0.000000
-0.926340 -0.376688 0.000000
-1.000000 -0.000001 0.000000
-1.000000 -0.000001 0.000000
-0.926340 -0.376688 0.000000
-1.000000 -0.000001 0.000000
-0.926340 -0.376688 0.000000
-0.007275 0.999974 0.000000
-0.007275 0.999974 0.000000
-0.007275 0.999974 0.000000
-0.007275 0.999974 0.000000
-0.007275 0.999974 0.000000
-0.007275 0.999974 0.000000
-1.000000 -0.000092 0.000000
-1.000000 -0.000092 0.000000
-1.000000 -0.000092 0.000000
-1.000000 -0.000092 0.000000
-1.000000 -0.000092 0.000000
-1.000000 -0.000092 0.000000
-0.000000 -1.000000 0.000000
-0.000000 -1.000000 0.000000
-0.000000 -1.000000 0.000000
-0.000000 -1.000000 0.000000
-0.000000 -1.000000 0.000000
-0.000000 -1.000000 0.000000
0.925394 0.379008 0.000000
0.716944 0.697131 0.000000
0.716944 0.697131 0.000000
0.925394 0.379008 0.000000
0.716944 0.697131 0.000000
0.925394 0.379008 0.000000
-0.716213 -0.697882 0.000000
-0.926340 -0.376688 0.000000
-0.926340 -0.376688 0.000000
-0.716213 -0.697882 0.000000
-0.926340 -0.376688 0.000000
-0.716213 -0.697882 0.000000
-0.716943 0.697132 0.000000
-0.925393 0.379008 0.000000
-0.925393 0.379008 0.000000
-0.716943 0.697132 0.000000
-0.925393 0.379008 0.000000
-0.716943 0.697132 0.000000
0.926340 -0.376689 0.000000
0.716211 -0.697883 0.000000
0.716211 -0.697883 0.000000
0.926340 -0.376689 0.000000
0.716211 -0.697883 0.000000
0.926340 -0.376689 0.000000
1.000000 -0.000002 0.000000
1.000000 -0.000002 0.000000
1.000000 -0.000002 0.000000
1.000000 -0.000002 0.000000
1.000000 -0.000002 0.000000
1.000000 -0.000002 0.000000
0.007275 0.999973 0.000000
0.007275 0.999973 0.000000
0.007275 0.999973 0.000000
0.007275 0.999973 0.000000
0.007275 0.999973 0.000000
0.007275 0.999973 0.000000
0.000000 -1.000000 0.000000
0.000000 -1.000000 0.000000
0.000000 -1.000000 0.000000
0.000000 -1.000000 0.000000
0.000000 -1.000000 0.000000
0.000000 -1.000000 0.000000
0.003700 0.999993 0.000000
0.003700 0.999993 0.000000
0.003700 0.999993 0.000000
0.003700 0.999993 0.000000
0.003700 0.999993 0.000000
0.003700 0.999993 0.000000
-0.999982 0.006059 0.000000
-0.925393 0.379008 0.000000
-0.999982 0.006059 0.000000
-0.925393 0.379008 0.000000
-0.999982 0.006059 0.000000
-0.925393 0.379008 0.000000
1.000000 0.000000 0.000000
0.926340 -0.376689 0.000000
0.926340 -0.376689 0.000000
1.000000 0.000000 0.000000
0.926340 -0.376689 0.000000
1.000000 0.000000 0.000000
-0.003700 -0.999993 0.000000
-0.003700 -0.999993 0.000000
-0.003700 -0.999993 0.000000
-0.003700 -0.999993 0.000000
-0.003700 -0.999993 0.000000
-0.003700 -0.999993 0.000000
0.999982 -0.006060 0.000000
0.925394 -0.379008 0.000000
0.999982 -0.006060 0.000000
0.925394 -0.379008 0.000000
0.999982 -0.006060 0.000000
0.925394 -0.379008 0.000000
-1.000000 0.000001 0.000000
-0.926340 0.376688 0.000000
-0.926340 0.376688 0.000000
-1.000000 0.000001 0.000000
-0.926340 0.376688 0.000000
-1.000000 0.000001 0.000000
-1.000000 0.000092 0.000000
-1.000000 0.000092 0.000000
-1.000000 0.000092 0.000000
-1.000000 0.000092 0.000000
-1.000000 0.000092 0.000000
-1.000000 0.000092 0.000000
-0.007275 -0.999974 0.000000
-0.007275 -0.999974 0.000000
-0.007275 -0.999974 0.000000
-0.007275 -0.999974 0.000000
-0.007275 -0.999974 0.000000
-0.007275 -0.999974 0.000000
-0.000000 1.000000 0.000000
-0.000000 1.000000 0.000000
-0.000000 1.000000 0.000000
-0.000000 1.000000 0.000000
-0.000000 1.000000 0.000000
-0.000000 1.000000 0.000000
0.716944 -0.697131 0.000000
0.925394 -0.379008 0.000000
0.925394 -0.379008 0.000000
0.716944 -0.697131 0.000000
0.925394 -0.379008 0.000000
0.716944 -0.697131 0.000000
-0.926340 0.376688 0.000000
-0.716213 0.697882 0.000000
-0.716213 0.697882 0.000000
-0.926340 0.376688 0.000000
-0.716213 0.697882 0.000000
-0.926340 0.376688 0.000000
-0.925393 -0.379008 0.000000
-0.716943 -0.697132 0.000000
-0.716943 -0.697132 0.000000
-0.925393 -0.379008 0.000000
-0.716943 -0.697132 0.000000
-0.925393 -0.379008 0.000000
0.716212 0.697883 0.000000
0.926340 0.376688 0.000000
0.926340 0.376688 0.000000
0.716212 0.697883 0.000000
0.926340 0.376688 0.000000
0.716212 0.697883 0.000000
0.007275 -0.999973 0.000000
0.007275 -0.999973 0.000000
0.007275 -0.999973 0.000000
0.007275 -0.999973 0.000000
0.007275 -0.999973 0.000000
0.007275 -0.999973 0.000000
1.000000 0.000002 0.000000
1.000000 0.000002 0.000000
1.000000 0.000002 0.000000
1.000000 0.000002 0.000000
1.000000 0.000002 0.000000
1.000000 0.000002 0.000000
0.000000 1.000000 0.000000
0.000000 1.000000 0.000000
0.000000 1.000000 0.000000
0.000000 1.000000 0.000000
0.000000 1.000000 0.000000
0.000000 1.000000 0.000000
-0.999982 -0.006059 0.000000
-0.925393 -0.379008 0.000000
-0.925393 -0.379008 0.000000
-0.999982 -0.006059 0.000000
-0.925393 -0.379008 0.000000
-0.999982 -0.006059 0.000000
0.003700 -0.999993 0.000000
0.003700 -0.999993 0.000000
0.003700 -0.999993 0.000000
0.003700 -0.999993 0.000000
0.003700 -0.999993 0.000000
0.003700 -0.999993 0.000000
0.926340 0.376688 0.000000
1.000000 0.000000 0.000000
1.000000 0.000000 0.000000
0.926340 0.376688 0.000000
1.000000 0.000000 0.000000
0.926340 0.376688 0.000000
0.000000 0.000000 1.000000
0.000000 0.000000 1.000000
0.000000 0.000000 1.000000
0.000000 0.000000 1.000000
0.000000 0.000000 1.000000
0.000000 0.000000 1.000000
0.000000 0.000000 1.000000
0.000000 0.000000 1.000000
0.000000 0.000000 1.000000
0.000000 0.000000 1.000000
0.000000 0.000000 1.000000
0.000000 0.000000 1.000000
0.000000 0.000000 1.000000
0.000000 0.000000 1.000000
0.000000 0.000000 1.000000
0.000000 0.000000 1.000000
0.000000 0.000000 1.000000
0.000000 0.000000 1.000000
0.000000 0.000000 1.000000
0.000000 0.000000 1.000000
0.000000 0.000000 1.000000
0.000000 0.000000 1.000000
0.000000 0.000000 1.000000
0.000000 0.000000 1.000000
0.000000 0.000000 1.000000
0.000000 0.000000 1.000000
0.000000 0.000000 1.000000
0.000000 0.000000 1.000000
0.000000 0.000000 1.000000
0.000000 0.000000 1.000000
0.000000 0.000000 1.000000
0.000000 0.000000 1.000000
0.000000 0.000000 1.000000
0.000000 0.000000 1.000000
0.000000 0.000000 1.000000
0.000000 0.000000 1.000000
0.000000 0.000000 1.000000
0.000000 0.000000 1.000000
0.000000 0.000000 1.000000
0.000000 0.000000 1.000000
0.000000 0.000000 1.000000
0.000000 0.000000 1.000000
0.000000 0.000000 1.000000
0.000000 0.000000 1.000000
0.000000 0.000000 1.000000
0.000000 0.000000 1.000000
0.000000 0.000000 1.000000
0.000000 0.000000 1.000000
0.000000 0.000000 1.000000
0.000000 0.000000 1.000000
0.000000 0.000000 1.000000
0.000000 0.000000 1.000000
0.000000 0.000000 1.000000
0.000000 0.000000 1.000000
0.000000 0.000000 1.000000
0.000000 0.000000 1.000000
0.000000 0.000000 1.000000
0.000000 0.000000 1.000000
0.000000 0.000000 1.000000
0.000000 0.000000 1.000000
0.000000 0.000000 1.000000
0.000000 0.000000 1.000000
0.000000 0.000000 1.000000
0.000000 0.000000 1.000000
0.000000 0.000000 1.000000
0.000000 0.000000 1.000000
0.000000 0.000000 1.000000
0.000000 0.000000 1.000000
0.000000 0.000000 1.000000
0.000000 0.000000 1.000000
0.000000 0.000000 1.000000
0.000000 0.000000 1.000000
0.000000 0.000000 -1.000000
0.000000 0.000000 -1.000000
0.000000 0.000000 -1.000000
0.000000 0.000000 -1.000000
0.000000 0.000000 -1.000000
0.000000 0.000000 -1.000000
0.000000 0.000000 -1.000000
0.000000 0.000000 -1.000000
0.000000 0.000000 -1.000000
0.000000 0.000000 -1.000000
0.000000 0.000000 -1.000000
0.000000 0.000000 -1.000000
0.000000 0.000000 -1.000000
0.000000 0.000000 -1.000000
0.000000 0.000000 -1.000000
0.000000 0.000000 -1.000000
0.000000 0.000000 -1.000000
0.000000 0.000000 -1.000000
0.000000 0.000000 -1.000000
0.000000 0.000000 -1.000000
0.000000 0.000000 -1.000000
0.000000 0.000000 -1.000000
0.000000 0.000000 -1.000000
0.000000 0.000000 -1.000000
0.000000 0.000000 -1.000000
0.000000 0.000000 -1.000000
0.000000 0.000000 -1.000000
0.000000 0.000000 -1.000000
0.000000 0.000000 -1.000000
0.000000 0.000000 -1.000000
0.000000 0.000000 -1.000000
0.000000 0.000000 -1.000000
0.000000 0.000000 -1.000000
0.000000 0.000000 -1.000000
0.000000 0.000000 -1.000000
0.000000 0.000000 -1.000000
0.000000 0.000000 -1.000000
0.000000 0.000000 -1.000000
0.000000 0.000000 -1.000000
0.000000 0.000000 -1.000000
0.000000 0.000000 -1.000000
0.000000 0.000000 -1.000000
0.000000 0.000000 -1.000000
0.000000 0.000000 -1.000000
0.000000 0.000000 -1.000000
0.000000 0.000000 -1.000000
0.000000 0.000000 -1.000000
0.000000 0.000000 -1.000000
0.000000 0.000000 -1.000000
0.000000 0.000000 -1.000000
0.000000 0.000000 -1.000000
0.000000 0.000000 -1.000000
0.000000 0.000000 -1.000000
0.000000 0.000000 -1.000000
0.000000 0.000000 -1.000000
0.000000 0.000000 -1.000000
0.000000 0.000000 -1.000000
0.000000 0.000000 -1.000000
0.000000 0.000000 -1.000000
0.000000 0.000000 -1.000000
0.000000 0.000000 -1.000000
0.000000 0.000000 -1.000000
0.000000 0.000000 -1.000000
0.000000 0.000000 -1.000000
0.000000 0.000000 -1.000000
0.000000 0.000000 -1.000000
0.000000 0.000000 -1.000000
0.000000 0.000000 -1.000000
0.000000 0.000000 -1.000000
0.000000 0.000000 -1.000000
0.000000 0.000000 -1.000000
0.000000 0.000000 -1.000000
-1.000000 -0.000001 0.000000
-1.000000 -0.000001 0.000000
-1.000000 -0.000001 0.000000
-1.000000 -0.000001 0.000000
-1.000000 -0.000001 0.000000
-1.000000 -0.000001 0.000000
1.000000 0.000001 0.000000
1.000000 0.000001 0.000000
1.000000 0.000001 0.000000
1.000000 0.000001 0.000000
1.000000 0.000001 0.000000
1.000000 0.000001 0.000000
-0.003701 0.999993 0.000000
-0.003701 0.999993 0.000000
-0.003701 0.999993 0.000000
-0.003701 0.999993 0.000000
-0.003701 0.999993 0.000000
-0.003701 0.999993 0.000000
0.000000 -1.000000 0.000000
0.000000 -1.000000 0.000000
0.000000 -1.000000 0.000000
0.000000 -1.000000 0.000000
0.000000 -1.000000 0.000000
0.000000 -1.000000 0.000000
0.000000 1.000000 0.000000
0.000000 1.000000 0.000000
0.000000 1.000000 0.000000
0.000000 1.000000 0.000000
0.000000 1.000000 0.000000
0.000000 1.000000 0.000000
-1.000000 -0.000094 0.000000
-1.000000 -0.000094 0.000000
-1.000000 -0.000094 0.000000
-1.000000 -0.000094 0.000000
-1.000000 -0.000094 0.000000
-1.000000 -0.000094 0.000000
-0.716213 -0.697882 0.000000
-0.716213 -0.697882 0.000000
-0.716213 -0.697882 0.000000
-0.716213 -0.697882 0.000000
-0.716213 -0.697882 0.000000
-0.716213 -0.697882 0.000000
0.717003 0.697070 0.000000
0.717003 0.697070 0.000000
0.717003 0.697070 0.000000
0.717003 0.697070 0.000000
0.717003 0.697070 0.000000
0.717003 0.697070 0.000000
0.716212 -0.697883 0.000000
0.716212 -0.697883 0.000000
0.716212 -0.697883 0.000000
0.716212 -0.697883 0.000000
0.716212 -0.697883 0.000000
0.716212 -0.697883 0.000000
-0.717002 0.697071 0.000000
-0.717002 0.697071 0.000000
-0.717002 0.697071 0.000000
-0.717002 0.697071 0.000000
-0.717002 0.697071 0.000000
-0.717002 0.697071 0.000000
0.000000 -1.000000 0.000000
0.000000 -1.000000 0.000000
0.000000 -1.000000 0.000000
0.000000 -1.000000 0.000000
0.000000 -1.000000 0.000000
0.000000 -1.000000 0.000000
1.000000 0.000000 0.000000
1.000000 0.000000 0.000000
1.000000 0.000000 0.000000
1.000000 0.000000 0.000000
1.000000 0.000000 0.000000
1.000000 0.000000 0.000000
-0.000000 1.000000 0.000000
-0.000000 1.000000 0.000000
-0.000000 1.000000 0.000000
-0.000000 1.000000 0.000000
-0.000000 1.000000 0.000000
-0.000000 1.000000 0.000000
1.000000 0.000000 0.000000
1.000000 0.000000 0.000000
1.000000 0.000000 0.000000
1.000000 0.000000 0.000000
1.000000 0.000000 0.000000
1.000000 0.000000 0.000000
0.003700 0.999993 0.000000
0.003700 0.999993 0.000000
0.003700 0.999993 0.000000
0.003700 0.999993 0.000000
0.003700 0.999993 0.000000
0.003700 0.999993 0.000000
-1.000000 0.000000 0.000000
-1.000000 0.000000 0.000000
-1.000000 0.000000 0.000000
-1.000000 0.000000 0.000000
-1.000000 0.000000 0.000000
-1.000000 0.000000 0.000000
-1.000000 0.000001 0.000000
-1.000000 0.000001 0.000000
-1.000000 0.000001 0.000000
-1.000000 0.000001 0.000000
-1.000000 0.000001 0.000000
-1.000000 0.000001 0.000000
-0.003701 -0.999993 0.000000
-0.003701 -0.999993 0.000000
-0.003701 -0.999993 0.000000
-0.003701 -0.999993 0.000000
-0.003701 -0.999993 0.000000
-0.003701 -0.999993 0.000000
1.000000 -0.000001 0.000000
1.000000 -0.000001 0.000000
1.000000 -0.000001 0.000000
1.000000 -0.000001 0.000000
1.000000 -0.000001 0.000000
1.000000 -0.000001 0.000000
0.000000 1.000000 0.000000
0.000000 1.000000 0.000000
0.000000 1.000000 0.000000
0.000000 1.000000 0.000000
0.000000 1.000000 0.000000
0.000000 1.000000 0.000000
-1.000000 0.000094 0.000000
-1.000000 0.000094 0.000000
-1.000000 0.000094 0.000000
-1.000000 0.000094 0.000000
-1.000000 0.000094 0.000000
-1.000000 0.000094 0.000000
0.000000 -1.000000 0.000000
0.000000 -1.000000 0.000000
0.000000 -1.000000 0.000000
0.000000 -1.000000 0.000000
0.000000 -1.000000 0.000000
0.000000 -1.000000 0.000000
-0.716213 0.697882 0.000000
-0.716213 0.697882 0.000000
-0.716213 0.697882 0.000000
-0.716213 0.697882 0.000000
-0.716213 0.697882 0.000000
-0.716213 0.697882 0.000000
0.717003 -0.697070 0.000000
0.717003 -0.697070 0.000000
0.717003 -0.697070 0.000000
0.717003 -0.697070 0.000000
0.717003 -0.697070 0.000000
0.717003 -0.697070 0.000000
0.716213 0.697882 0.000000
0.716213 0.697882 0.000000
0.716213 0.697882 0.000000
0.716213 0.697882 0.000000
0.716213 0.697882 0.000000
0.716213 0.697882 0.000000
-0.717002 -0.697071 0.000000
-0.717002 -0.697071 0.000000
-0.717002 -0.697071 0.000000
-0.717002 -0.697071 0.000000
-0.717002 -0.697071 0.000000
-0.717002 -0.697071 0.000000
0.000000 1.000000 0.000000
0.000000 1.000000 0.000000
0.000000 1.000000 0.000000
0.000000 1.000000 0.000000
0.000000 1.000000 0.000000
0.000000 1.000000 0.000000
-0.000000 -1.000000 0.000000
-0.000000 -1.000000 0.000000
-0.000000 -1.000000 0.000000
-0.000000 -1.000000 0.000000
-0.000000 -1.000000 0.000000
-0.000000 -1.000000 0.000000
1.000000 0.000000 0.000000
1.000000 0.000000 0.000000
1.000000 0.000000 0.000000
1.000000 0.000000 0.000000
1.000000 0.000000 0.000000
1.000000 0.000000 0.000000
1.000000 0.000000 0.000000
1.000000 0.000000 0.000000
1.000000 0.000000 0.000000
1.000000 0.000000 0.000000
1.000000 0.000000 0.000000
1.000000 0.000000 0.000000
-1.000000 0.000000 0.000000
-1.000000 0.000000 0.000000
-1.000000 0.000000 0.000000
-1.000000 0.000000 0.000000
-1.000000 0.000000 0.000000
-1.000000 0.000000 0.000000
0.003701 -0.999993 0.000000
0.003701 -0.999993 0.000000
0.003701 -0.999993 0.000000
0.003701 -0.999993 0.000000
0.003701 -0.999993 0.000000
0.003701 -0.999993 0.000000
0.753535 0.002330 0.657404
0.753535 0.002330 0.657404
0.753535 0.002330 0.657404
0.753535 0.002330 0.657404
0.753535 0.002330 0.657404
0.753535 0.002330 0.657404
-0.002856 0.770473 0.637466
-0.002856 0.770473 0.637466
-0.002856 0.770473 0.637466
-0.002856 0.770473 0.637466
-0.002856 0.770473 0.637466
-0.002856 0.770473 0.637466
0.507290 0.493229 0.706670
0.507290 0.493229 0.706670
0.507290 0.493229 0.706670
0.507290 0.493229 0.706670
0.507290 0.493229 0.706670
0.507290 0.493229 0.706670
-0.507291 0.493231 0.706668
-0.507291 0.493231 0.706668
-0.507291 0.493231 0.706668
-0.507291 0.493231 0.706668
-0.507291 0.493231 0.706668
-0.507291 0.493231 0.706668
0.002855 0.770473 0.637466
0.002855 0.770473 0.637466
0.002855 0.770473 0.637466
0.002855 0.770473 0.637466
0.002855 0.770473 0.637466
0.002855 0.770473 0.637466
-0.753535 0.002329 0.657404
-0.753535 0.002329 0.657404
-0.753535 0.002329 0.657404
-0.753535 0.002329 0.657404
-0.753535 0.002329 0.657404
-0.753535 0.002329 0.657404
0.753535 -0.002330 0.657404
0.753535 -0.002330 0.657404
0.753535 -0.002330 0.657404
0.753535 -0.002330 0.657404
0.753535 -0.002330 0.657404
0.753535 -0.002330 0.657404
-0.002856 -0.770473 0.637466
-0.002856 -0.770473 0.637466
-0.002856 -0.770473 0.637466
-0.002856 -0.770473 0.637466
-0.002856 -0.770473 0.637466
-0.002856 -0.770473 0.637466
0.507290 -0.493229 0.706670
0.507290 -0.493229 0.706670
0.507290 -0.493229 0.706670
0.507290 -0.493229 0.706670
0.507290 -0.493229 0.706670
0.507290 -0.493229 0.706670
-0.507291 -0.493231 0.706668
-0.507291 -0.493231 0.706668
-0.507291 -0.493231 0.706668
-0.507291 -0.493231 0.706668
-0.507291 -0.493231 0.706668
-0.507291 -0.493231 0.706668
0.002855 -0.770473 0.637466
0.002855 -0.770473 0.637466
0.002855 -0.770473 0.637466
0.002855 -0.770473 0.637466
0.002855 -0.770473 0.637466
0.002855 -0.770473 0.637466
-0.753535 -0.002329 0.657404
-0.753535 -0.002329 0.657404
-0.753535 -0.002329 0.657404
-0.753535 -0.002329 0.657404
-0.753535 -0.002329 0.657404
-0.753535 -0.002329 0.657404
0.753535 0.002330 -0.657404
0.753535 0.002330 -0.657404
0.753535 0.002330 -0.657404
0.753535 0.002330 -0.657404
0.753535 0.002330 -0.657404
0.753535 0.002330 -0.657404
-0.002856 0.770473 -0.637466
-0.002856 0.770473 -0.637466
-0.002856 0.770473 -0.637466
-0.002856 0.770473 -0.637466
-0.002856 0.770473 -0.637466
-0.002856 0.770473 -0.637466
0.507290 0.493229 -0.706670
0.507290 0.493229 -0.706670
0.507290 0.493229 -0.706670
0.507290 0.493229 -0.706670
0.507290 0.493229 -0.706670
0.507290 0.493229 -0.706670
-0.507291 0.493231 -0.706668
-0.507291 0.493231 -0.706668
-0.507291 0.493231 -0.706668
-0.507291 0.493231 -0.706668
-0.507291 0.493231 -0.706668
-0.507291 0.493231 -0.706668
0.002855 0.770473 -0.637466
0.002855 0.770473 -0.637466
0.002855 0.770473 -0.637466
0.002855 0.770473 -0.637466
0.002855 0.770473 -0.637466
0.002855 0.770473 -0.637466
-0.753535 0.002329 -0.657404
-0.753535 0.002329 -0.657404
-0.753535 0.002329 -0.657404
-0.753535 0.002329 -0.657404
-0.753535 0.002329 -0.657404
-0.753535 0.002329 -0.657404
0.753535 -0.002330 -0.657404
0.753535 -0.002330 -0.657404
0.753535 -0.002330 -0.657404
0.753535 -0.002330 -0.657404
0.753535 -0.002330 -0.657404
0.753535 -0.002330 -0.657404
-0.002856 -0.770473 -0.637466
-0.002856 -0.770473 -0.637466
-0.002856 -0.770473 -0.637466
-0.002856 -0.770473 -0.637466
-0.002856 -0.770473 -0.637466
-0.002856 -0.770473 -0.637466
0.507290 -0.493229 -0.706670
0.507290 -0.493229 -0.706670
0.507290 -0.493229 -0.706670
0.507290 -0.493229 -0.706670
0.507290 -0.493229 -0.706670
0.507290 -0.493229 -0.706670
-0.507291 -0.493231 -0.706668
-0.507291 -0.493231 -0.706668
-0.507291 -0.493231 -0.706668
-0.507291 -0.493231 -0.706668
-0.507291 -0.493231 -0.706668
-0.507291 -0.493231 -0.706668
0.002855 -0.770473 -0.637466
0.002855 -0.770473 -0.637466
0.002855 -0.770473 -0.637466
0.002855 -0.770473 -0.637466
0.002855 -0.770473 -0.637466
0.002855 -0.770473 -0.637466
-0.753535 -0.002329 -0.657404
-0.753535 -0.002329 -0.657404
-0.753535 -0.002329 -0.657404
-0.753535 -0.002329 -0.657404
-0.753535 -0.002329 -0.657404
-0.753535 -0.002329 -0.657404
0.705804 0.708407 0.000000
0.705804 0.708407 0.000000
0.705804 0.708407 0.000000
0.705804 0.708407 0.000000
0.705804 0.708407 0.000000
0.705804 0.708407 0.000000
-0.707135 0.707079 0.000000
-0.707135 0.707079 0.000000
-0.707135 0.707079 0.000000
-0.707135 0.707079 0.000000
-0.707135 0.707079 0.000000
-0.707135 0.707079 0.000000
0.707107 0.707107 0.000000
0.707107 0.707107 0.000000
0.707107 0.707107 0.000000
0.707107 0.707107 0.000000
0.707107 0.707107 0.000000
0.707107 0.707107 0.000000
-0.705804 0.708407 0.000000
-0.705804 0.708407 0.000000
-0.705804 0.708407 0.000000
-0.705804 0.708407 0.000000
-0.705804 0.708407 0.000000
-0.705804 0.708407 0.000000
0.705804 -0.708407 0.000000
0.705804 -0.708407 0.000000
0.705804 -0.708407 0.000000
0.705804 -0.708407 0.000000
0.705804 -0.708407 0.000000
0.705804 -0.708407 0.000000
-0.707135 -0.707079 0.000000
-0.707135 -0.707079 0.000000
-0.707135 -0.707079 0.000000
-0.707135 -0.707079 0.000000
-0.707135 -0.707079 0.000000
-0.707135 -0.707079 0.000000
0.707107 -0.707107 0.000000
0.707107 -0.707107 0.000000
0.707107 -0.707107 0.000000
0.707107 -0.707107 0.000000
0.707107 -0.707107 0.000000
0.707107 -0.707107 0.000000
-0.705804 -0.708407 0.000000
-0.705804 -0.708407 0.000000
-0.705804 -0.708407 0.000000
-0.705804 -0.708407 0.000000
-0.705804 -0.708407 0.000000
-0.705804 -0.708407 0.000000
1.000000 0.000000 0.000000
1.000000 0.000000 0.000000
1.000000 0.000000 0.000000
1.000000 0.000000 0.000000
1.000000 0.000000 0.000000
1.000000 0.000000 0.000000
1.000000 0.000001 -0.000000
1.000000 0.000001 -0.000000
1.000000 0.000001 -0.000000
1.000000 0.000001 -0.000000
1.000000 0.000001 -0.000000
1.000000 0.000001 -0.000000
0.717003 0.697070 0.000000
0.717003 0.697070 0.000000
0.717003 0.697070 0.000000
0.717003 0.697070 0.000000
0.717003 0.697070 0.000000
0.717003 0.697070 0.000000
-0.000000 1.000000 0.000000
-0.000000 1.000000 0.000000
-0.000000 1.000000 0.000000
-0.000000 1.000000 0.000000
-0.000000 1.000000 0.000000
-0.000000 1.000000 0.000000
0.000000 1.000000 0.000000
0.000000 1.000000 0.000000
0.000000 1.000000 0.000000
0.000000 1.000000 0.000000
0.000000 1.000000 0.000000
0.000000 1.000000 0.000000
-0.000000 1.000000 -0.000000
-0.000000 1.000000 -0.000000
-0.000000 1.000000 -0.000000
-0.000000 1.000000 -0.000000
-0.000000 1.000000 -0.000000
-0.000000 1.000000 -0.000000
0.717003 0.697070 0.000000
0.717003 0.697070 0.000000
0.717003 0.697070 0.000000
0.717003 0.697070 0.000000
0.717003 0.697070 0.000000
0.717003 0.697070 0.000000
1.000000 0.000001 0.000000
1.000000 0.000001 0.000000
1.000000 0.000001 0.000000
1.000000 0.000001 0.000000
1.000000 0.000001 0.000000
1.000000 0.000001 0.000000
0.000000 1.000000 0.000000
0.000000 1.000000 0.000000
0.000000 1.000000 0.000000
0.000000 1.000000 0.000000
0.000000 1.000000 0.000000
0.000000 1.000000 0.000000
0.000000 1.000000 0.000000
0.000000 1.000000 0.000000
0.000000 1.000000 0.000000
0.000000 1.000000 0.000000
0.000000 1.000000 0.000000
0.000000 1.000000 0.000000
-0.717002 0.697071 0.000000
-0.717002 0.697071 0.000000
-0.717002 0.697071 0.000000
-0.717002 0.697071 0.000000
-0.717002 0.697071 0.000000
-0.717002 0.697071 0.000000
-1.000000 0.000000 0.000000
-1.000000 0.000000 0.000000
-1.000000 0.000000 0.000000
-1.000000 0.000000 0.000000
-1.000000 0.000000 0.000000
-1.000000 0.000000 0.000000
-1.000000 0.000000 0.000000
-1.000000 0.000000 0.000000
-1.000000 0.000000 0.000000
-1.000000 0.000000 0.000000
-1.000000 0.000000 0.000000
-1.000000 0.000000 0.000000
-1.000000 0.000000 0.000000
-1.000000 0.000000 0.000000
-1.000000 0.000000 0.000000
-1.000000 0.000000 0.000000
-1.000000 0.000000 0.000000
-1.000000 0.000000 0.000000
-0.717002 0.697071 0.000000
-0.717002 0.697071 0.000000
-0.717002 0.697071 0.000000
-0.717002 0.697071 0.000000
-0.717002 0.697071 0.000000
-0.717002 0.697071 0.000000
0.000000 1.000000 -0.000000
0.000000 1.000000 -0.000000
0.000000 1.000000 -0.000000
0.000000 1.000000 -0.000000
0.000000 1.000000 -0.000000
0.000000 1.000000 -0.000000
0.000000 -1.000000 0.000000
0.000000 -1.000000 0.000000
0.000000 -1.000000 0.000000
0.000000 -1.000000 0.000000
0.000000 -1.000000 0.000000
0.000000 -1.000000 0.000000
-0.000000 -1.000000 0.000000
-0.000000 -1.000000 0.000000
-0.000000 -1.000000 0.000000
-0.000000 -1.000000 0.000000
-0.000000 -1.000000 0.000000
-0.000000 -1.000000 0.000000
0.717003 -0.697070 0.000000
0.717003 -0.697070 0.000000
0.717003 -0.697070 0.000000
0.717003 -0.697070 0.000000
0.717003 -0.697070 0.000000
0.717003 -0.697070 0.000000
1.000000 -0.000001 -0.000000
1.000000 -0.000001 -0.000000
1.000000 -0.000001 -0.000000
1.000000 -0.000001 -0.000000
1.000000 -0.000001 -0.000000
1.000000 -0.000001 -0.000000
1.000000 0.000000 0.000000
1.000000 0.000000 0.000000
1.000000 0.000000 0.000000
1.000000 0.000000 0.000000
1.000000 0.000000 0.000000
1.000000 0.000000 0.000000
1.000000 -0.000001 0.000000
1.000000 -0.000001 0.000000
1.000000 -0.000001 0.000000
1.000000 -0.000001 0.000000
1.000000 -0.000001 0.000000
1.000000 -0.000001 0.000000
0.717003 -0.697070 0.000000
0.717003 -0.697070 0.000000
0.717003 -0.697070 0.000000
0.717003 -0.697070 0.000000
0.717003 -0.697070 0.000000
0.717003 -0.697070 0.000000
-0.000000 -1.000000 -0.000000
-0.000000 -1.000000 -0.000000
-0.000000 -1.000000 -0.000000
-0.000000 -1.000000 -0.000000
-0.000000 -1.000000 -0.000000
-0.000000 -1.000000 -0.000000
-1.000000 0.000000 0.000000
-1.000000 0.000000 0.000000
-1.000000 0.000000 0.000000
-1.000000 0.000000 0.000000
-1.000000 0.000000 0.000000
-1.000000 0.000000 0.000000
-1.000000 0.000000 0.000000
-1.000000 0.000000 0.000000
-1.000000 0.000000 0.000000
-1.000000 0.000000 0.000000
-1.000000 0.000000 0.000000
-1.000000 0.000000 0.000000
-0.717002 -0.697071 0.000000
-0.717002 -0.697071 0.000000
-0.717002 -0.697071 0.000000
-0.717002 -0.697071 0.000000
-0.717002 -0.697071 0.000000
-0.717002 -0.697071 0.000000
0.000000 -1.000000 0.000000
0.000000 -1.000000 0.000000
0.000000 -1.000000 0.000000
0.000000 -1.000000 0.000000
0.000000 -1.000000 0.000000
0.000000 -1.000000 0.000000
0.000000 -1.000000 0.000000
0.000000 -1.000000 0.000000
0.000000 -1.000000 0.000000
0.000000 -1.000000 0.000000
0.000000 -1.000000 0.000000
0.000000 -1.000000 0.000000
0.000000 -1.000000 -0.000000
0.000000 -1.000000 -0.000000
0.000000 -1.000000 -0.000000
0.000000 -1.000000 -0.000000
0.000000 -1.000000 -0.000000
0.000000 -1.000000 -0.000000
-0.717002 -0.697071 0.000000
-0.717002 -0.697071 0.000000
-0.717002 -0.697071 0.000000
-0.717002 -0.697071 0.000000
-0.717002 -0.697071 0.000000
-0.717002 -0.697071 0.000000
-1.000000 0.000000 0.000000
-1.000000 0.000000 0.000000
-1.000000 0.000000 0.000000
-1.000000 0.000000 0.000000
-1.000000 0.000000 0.000000
-1.000000 0.000000 0.000000
</float_array>
          <technique_common>
            <accessor source="#SM_BoardProjectors_Tron_01_A_1-Normal0-array" count="1056" stride="3">
              <param name="X" type="float"/>
              <param name="Y" type="float"/>
              <param name="Z" type="float"/>
            </accessor>
          </technique_common>
        </source>
        <source id="SM_BoardProjectors_Tron_01_A_1-UV0">
          <float_array id="SM_BoardProjectors_Tron_01_A_1-UV0-array" count="288">
-0.232884 0.274852
-0.232468 0.075095
-0.213982 0.091623
-0.215497 0.274915
0.535624 0.049613
0.761220 0.049801
0.742513 0.066049
0.535627 0.064357
-0.207654 0.049801
-0.188947 0.066049
0.786037 0.075095
0.767551 0.091623
0.017942 0.049613
0.017939 0.064357
0.786456 0.274852
0.769068 0.274915
-0.213982 0.908367
-0.232468 0.924895
-0.232884 0.725133
-0.215496 0.725070
0.742514 0.933946
0.761221 0.950194
0.535626 0.950384
0.535628 0.935640
-0.207653 0.950194
-0.188946 0.933945
0.767552 0.908367
0.786038 0.924895
0.017943 0.950384
0.017939 0.935640
0.786456 0.725133
0.769068 0.725070
-0.215497 0.274915
-0.232884 0.274852
-0.213982 0.091623
-0.232468 0.075095
0.535627 0.064357
0.535624 0.049613
0.742513 0.066049
0.761220 0.049801
-0.188947 0.066049
-0.207654 0.049801
0.767551 0.091623
0.786037 0.075095
0.017939 0.935640
0.017943 0.950384
0.769068 0.725070
0.786456 0.725133
0.017942 0.049613
0.017939 0.064357
0.786456 0.274852
0.769068 0.274915
-0.232468 0.924895
-0.213982 0.908367
-0.232884 0.725133
-0.215496 0.725070
0.761221 0.950194
0.742514 0.933946
0.535626 0.950384
0.535628 0.935640
-0.207653 0.950194
-0.188946 0.933945
0.786038 0.924895
0.767552 0.908367
-0.211130 0.270559
-0.210734 0.094527
0.539999 0.068719
0.739223 0.068907
-0.185657 0.068906
0.764303 0.094527
0.013567 0.931279
0.764701 0.729426
0.013566 0.068719
0.764701 0.270559
-0.210733 0.905463
-0.211129 0.729425
0.739224 0.931088
0.540000 0.931279
-0.185657 0.931088
0.764304 0.905463
-0.211130 0.270559
-0.215497 0.274915
-0.210734 0.094527
-0.213982 0.091623
0.539999 0.068719
0.535627 0.064357
0.739223 0.068907
0.742513 0.066049
-0.185657 0.068906
-0.188947 0.066049
0.764303 0.094527
0.767551 0.091623
0.013567 0.931279
0.017939 0.935640
0.764702 0.729426
0.769068 0.725070
0.017939 0.064357
0.013566 0.068719
0.769068 0.274915
0.764701 0.270559
-0.210733 0.905463
-0.213982 0.908367
-0.215496 0.725070
-0.211129 0.729425
0.739224 0.931088
0.742514 0.933946
0.535628 0.935640
0.540000 0.931279
-0.185657 0.931088
-0.188946 0.933945
0.764304 0.905463
0.767552 0.908367
-0.211130 0.270559
-0.211130 0.270559
-0.210734 0.094527
-0.185657 0.068906
0.013566 0.068719
0.013566 0.068719
-0.185657 0.068906
-0.210734 0.094527
0.539999 0.068719
0.539999 0.068719
0.739223 0.068907
0.764303 0.094527
0.764701 0.270559
0.764701 0.270559
0.764303 0.094527
0.739223 0.068907
0.013567 0.931279
0.013567 0.931279
-0.185657 0.931088
-0.210733 0.905463
-0.211129 0.729425
-0.211129 0.729425
-0.210733 0.905463
-0.185657 0.931088
0.764702 0.729426
0.764701 0.729426
0.764304 0.905463
0.739224 0.931088
0.540000 0.931279
0.540000 0.931279
0.739224 0.931088
0.764304 0.905463
</float_array>
          <technique_common>
            <accessor source="#SM_BoardProjectors_Tron_01_A_1-UV0-array" count="144" stride="2">
              <param name="S" type="float"/>
              <param name="T" type="float"/>
            </accessor>
          </technique_common>
        </source>
        <vertices id="SM_BoardProjectors_Tron_01_A_1-VERTEX">
          <input semantic="POSITION" source="#SM_BoardProjectors_Tron_01_A_1-POSITION"/>
        </vertices>
        <triangles count="328" material="Material #36"><input semantic="VERTEX" offset="0" source="#SM_BoardProjectors_Tron_01_A_1-VERTEX"/><input semantic="NORMAL" offset="1" source="#SM_BoardProjectors_Tron_01_A_1-Normal0"/><input semantic="TEXCOORD" offset="2" set="0" source="#SM_BoardProjectors_Tron_01_A_1-UV0"/><p> 0 0 0 2 1 2 3 2 3 0 3 0 1 4 1 2 5 2 6 6 6 7 7 7 4 8 4 6 9 6 4 10 4 5 11 5 9 12 9 2 13 2 8 14 8 8 15 8 2 16 2 1 17 1 11 18 11 5 19 5 10 20 10 5 21 5 11 22 11 6 23 6 9 24 9 12 25 12 13 26 13 12 27 12 9 28 9 8 29 8 15 30 15 11 31 11 14 32 14 10 33 10 14 34 14 11 35 11 17 36 17 18 37 18 16 38 16 16 39 16 18 40 18 19 41 19 23 42 23 20 43 20 22 44 22 21 45 21 22 46 22 20 47 20 16 48 16 25 49 25 24 50 24 16 51 16 24 52 24 17 53 17 21 54 21 26 55 26 27 56 27 26 57 26 21 58 21 20 59 20 28 60 28 24 61 24 25 62 25 28 63 28 25 64 25 29 65 29 30 66 30 27 67 27 26 68 26 26 69 26 31 70 31 30 71 30 33 72 1 32 73 0 34 74 2 34 75 2 32 76 0 35 77 3 39 78 7 38 79 6 36 80 4 37 81 5 36 82 4 38 83 6 34 84 2 41 85 9 40 86 8 34 87 2 40 88 8 33 89 1 37 90 5 43 91 11 42 92 10 43 93 11 37 94 5 38 95 6 44 96 12 40 97 8 41 98 9 44 99 12 41 100 9 45 101 13 46 102 14 42 103 10 43 104 11 43 105 11 47 106 15 46 107 14 50 108 18 48 109 16 51 110 19 50 111 18 49 112 17 48 113 16 52 114 20 55 115 23 54 116 22 52 117 20 54 118 22 53 119 21 57 120 25 48 121 16 56 122 24 56 123 24 48 124 16 49 125 17 58 126 26 53 127 21 59 128 27 53 129 21 58 130 26 52 131 20 57 132 25 60 133 28 61 134 29 60 135 28 57 136 25 56 137 24 63 138 31 58 139 26 62 140 30 59 141 27 62 142 30 58 143 26 3 144 3 2 145 2 34 146 2 3 147 3 34 148 2 35 149 3 0 150 0 3 151 3 35 152 3 0 153 0 35 154 3 32 155 0 1 156 1 0 157 0 32 158 0 1 159 1 32 160 0 33 161 1 38 162 6 7 163 7 6 164 6 7 165 7 38 166 6 39 167 7 39 168 7 4 169 4 7 170 7 4 171 4 39 172 7 36 173 4 5 174 5 4 175 4 36 176 4 5 177 5 36 178 4 37 179 5 2 180 2 9 181 9 41 182 9 2 183 2 41 184 9 34 185 2 8 186 8 1 187 1 33 188 1 8 189 8 33 190 1 40 191 8 6 192 6 11 193 11 43 194 11 6 195 6 43 196 11 38 197 6 10 198 10 5 199 5 37 200 5 10 201 10 37 202 5 42 203 10 12 204 12 44 205 12 13 206 13 13 207 13 44 208 12 45 209 13 9 210 9 13 211 13 45 212 13 9 213 9 45 214 13 41 215 9 12 216 12 8 217 8 40 218 8 12 219 12 40 220 8 44 221 12 15 222 15 14 223 14 46 224 14 15 225 15 46 226 14 47 227 15 47 228 15 11 229 11 15 230 15 11 231 11 47 232 15 43 233 11 14 234 14 10 235 10 42 236 10 14 237 14 42 238 10 46 239 14 19 240 19 18 241 18 50 242 18 19 243 19 50 244 18 51 245 19 51 246 19 16 247 16 19 248 19 16 249 16 51 250 19 48 251 16 18 252 18 17 253 17 49 254 17 18 255 18 49 256 17 50 257 18 22 258 22 54 259 22 23 260 23 23 261 23 54 262 22 55 263 23 55 264 23 20 265 20 23 266 23 20 267 20 55 268 23 52 269 20 22 270 22 21 271 21 53 272 21 22 273 22 53 274 21 54 275 22 25 276 25 16 277 16 48 278 16 25 279 25 48 280 16 57 281 25 17 282 17 24 283 24 56 284 24 17 285 17 56 286 24 49 287 17 26 288 26 20 289 20 52 290 20 26 291 26 52 292 20 58 293 26 21 294 21 27 295 27 59 296 27 21 297 21 59 298 27 53 299 21 29 300 29 25 301 25 57 302 25 29 303 29 57 304 25 61 305 29 61 306 29 28 307 28 29 308 29 28 309 28 61 310 29 60 311 28 24 312 24 28 313 28 60 314 28 24 315 24 60 316 28 56 317 24 31 318 31 26 319 26 58 320 26 31 321 31 58 322 26 63 323 31 30 324 30 31 325 31 63 326 31 30 327 30 63 328 31 62 329 30 27 330 27 30 331 30 62 332 30 27 333 27 62 334 30 59 335 27 65 336 33 66 337 34 64 338 32 65 339 33 67 340 35 66 341 34 70 342 38 68 343 36 69 344 37 70 345 38 69 346 37 71 347 39 72 348 40 66 349 34 73 350 41 73 351 41 66 352 34 67 353 35 74 354 42 71 355 39 75 356 43 71 357 39 74 358 42 70 359 38 72 360 40 80 361 48 81 362 49 80 363 48 72 364 40 73 365 41 83 366 51 74 367 42 82 368 50 75 369 43 82 370 50 74 371 42 84 372 52 86 373 54 85 374 53 85 375 53 86 376 54 87 377 55 91 378 59 89 379 57 90 380 58 88 381 56 90 382 58 89 383 57 85 384 53 93 385 61 92 386 60 85 387 53 92 388 60 84 389 52 88 390 56 95 391 63 94 392 62 95 393 63 88 394 56 89 395 57 77 396 45 92 397 60 93 398 61 77 399 45 93 400 61 76 401 44 79 402 47 94 403 62 95 404 63 95 405 63 78 406 46 79 407 47 99 408 35 97 409 33 145 410 83 145 411 83 97 412 33 144 413 81 146 414 85 147 415 87 101 416 37 103 417 39 101 418 37 147 419 87 145 420 83 148 421 89 105 422 41 145 423 83 105 424 41 99 425 35 103 426 39 149 427 91 107 428 43 149 429 91 103 430 39 147 431 87 112 432 48 105 433 41 148 434 89 112 435 48 148 436 89 113 437 96 114 438 50 107 439 43 149 440 91 149 441 91 115 442 98 114 443 50 118 444 54 154 445 101 119 446 102 118 447 54 116 448 52 154 449 101 156 450 105 123 451 106 122 452 58 156 453 105 122 454 58 120 455 56 158 456 109 154 457 101 124 458 60 124 459 60 154 460 101 116 461 52 159 462 111 120 463 56 126 464 62 120 465 56 159 466 111 156 467 105 158 468 109 109 469 45 150 470 93 109 471 45 158 472 109 124 473 60 151 474 95 159 475 111 111 476 47 126 477 62 111 478 47 159 479 111 67 480 35 65 481 33 97 482 33 67 483 35 97 484 33 99 485 35 64 492 32 144 493 81 65 494 33 65 495 33 144 496 81 97 497 33 71 498 39 69 499 37 101 500 37 71 501 39 101 502 37 103 503 39 68 510 36 146 511 85 69 512 37 69 513 37 146 514 85 101 515 37 67 516 35 99 517 35 73 518 41 73 519 41 99 520 35 105 521 41 71 528 39 103 529 39 75 530 43 75 531 43 103 532 39 107 533 43 80 540 48 73 541 41 105 542 41 80 543 48 105 544 41 112 545 48 80 546 48 112 547 48 81 548 49 81 549 49 112 550 48 113 551 96 82 558 50 75 559 43 107 560 43 82 561 50 107 562 43 114 563 50 82 564 50 114 565 50 83 566 51 83 567 51 114 568 50 115 569 98 86 576 54 84 577 52 116 578 52 86 579 54 116 580 52 118 581 54 86 582 54 118 583 54 87 584 55 87 585 55 118 586 54 119 587 102 90 594 58 88 595 56 120 596 56 90 597 58 120 598 56 122 599 58 90 600 58 122 601 58 91 602 59 91 603 59 122 604 58 123 605 106 92 612 60 124 613 60 84 614 52 84 615 52 124 616 60 116 617 52 94 624 62 126 625 62 88 626 56 88 627 56 126 628 62 120 629 56 92 636 60 77 637 45 109 638 45 92 639 60 109 640 45 124 641 60 76 648 44 150 649 93 77 650 45 77 651 45 150 652 93 109 653 45 94 654 62 79 655 47 111 656 47 94 657 62 111 658 47 126 659 62 78 666 46 151 667 95 79 668 47 79 669 47 151 670 95 111 671 47 128 672 64 66 673 34 129 674 65 64 675 32 66 676 34 128 677 64 130 678 66 70 679 38 131 680 67 68 681 36 70 682 38 130 683 66 132 684 68 129 685 65 72 686 40 66 687 34 72 688 40 129 689 65 133 690 69 70 691 38 74 692 42 70 693 38 133 694 69 131 695 67 136 696 72 72 697 40 81 698 49 72 699 40 136 700 72 132 701 68 137 702 73 74 703 42 83 704 51 74 705 42 137 706 73 133 707 69 139 708 75 85 709 53 87 710 55 85 711 53 139 712 75 138 713 74 141 714 77 89 715 57 91 716 59 89 717 57 141 718 77 140 719 76 138 720 74 93 721 61 85 722 53 93 723 61 138 724 74 142 725 78 143 726 79 89 727 57 140 728 76 95 729 63 89 730 57 143 731 79 134 732 70 93 733 61 142 734 78 76 735 44 93 736 61 134 737 70 135 738 71 95 739 63 143 740 79 78 741 46 95 742 63 135 743 71 145 744 83 96 745 80 98 746 82 96 747 80 145 748 83 144 749 81 147 750 87 100 751 84 102 752 86 100 753 84 147 754 87 146 755 85 98 756 82 148 757 89 145 758 83 148 759 89 98 760 82 104 761 88 106 762 90 147 763 87 102 764 86 149 765 91 147 766 87 106 767 90 148 768 89 152 769 97 113 770 96 152 771 97 148 772 89 104 773 88 149 774 91 153 775 99 115 776 98 153 777 99 149 778 91 106 779 90 154 780 101 155 781 103 119 782 102 155 783 103 154 784 101 117 785 100 156 786 105 157 787 107 123 788 106 157 789 107 156 790 105 121 791 104 125 792 108 117 793 100 158 794 109 154 795 101 158 796 109 117 797 100 127 798 110 156 799 105 159 800 111 156 801 105 127 802 110 121 803 104 158 804 109 108 805 92 125 806 108 108 807 92 158 808 109 150 809 93 159 810 111 110 811 94 127 812 110 110 813 94 159 814 111 151 815 95 64 816 32 96 817 80 144 818 81 96 819 80 64 820 32 128 821 64 68 822 36 100 823 84 146 824 85 100 825 84 68 826 36 130 827 66 81 828 49 113 829 96 136 830 72 136 831 72 113 832 96 152 833 97 83 834 51 115 835 98 137 836 73 137 837 73 115 838 98 153 839 99 87 840 55 119 841 102 139 842 75 139 843 75 119 844 102 155 845 103 91 846 59 123 847 106 141 848 77 141 849 77 123 850 106 157 851 107 76 852 44 108 853 92 150 854 93 108 855 92 76 856 44 134 857 70 78 858 46 110 859 94 151 860 95 110 861 94 78 862 46 135 863 71 96 864 80 128 865 64 161 866 113 96 867 80 161 868 113 160 869 112 129 870 65 161 871 113 128 872 64 161 873 113 129 874 65 162 875 114 163 876 115 129 877 65 132 878 68 129 879 65 163 880 115 162 881 114 132 882 68 136 883 72 164 884 116 132 885 68 164 886 116 163 887 115 136 888 72 152 889 97 165 890 117 136 891 72 165 892 117 164 893 116 165 894 117 104 895 88 166 896 118 104 897 88 165 898 117 152 899 97 167 900 119 166 901 118 104 902 88 167 903 119 104 904 88 98 905 82 160 906 112 167 907 119 98 908 82 98 909 82 96 910 80 160 911 112 100 912 84 130 913 66 169 914 121 100 915 84 169 916 121 168 917 120 131 918 67 169 919 121 130 920 66 169 921 121 131 922 67 170 923 122 131 924 67 133 925 69 171 926 123 131 927 67 171 928 123 170 929 122 133 930 69 137 931 73 172 932 124 133 933 69 172 934 124 171 935 123 137 936 73 153 937 99 173 938 125 137 939 73 173 940 125 172 941 124 173 942 125 106 943 90 174 944 126 106 945 90 173 946 125 153 947 99 175 948 127 174 949 126 106 950 90 175 951 127 106 952 90 102 953 86 168 954 120 175 955 127 102 956 86 102 957 86 100 958 84 168 959 120 108 960 92 134 961 70 177 962 129 108 963 92 177 964 129 176 965 128 142 966 78 177 967 129 134 968 70 177 969 129 142 970 78 178 971 130 142 972 78 138 973 74 179 974 131 142 975 78 179 976 131 178 977 130 138 978 74 139 979 75 180 980 132 138 981 74 180 982 132 179 983 131 139 984 75 155 985 103 181 986 133 139 987 75 181 988 133 180 989 132 181 990 133 117 991 100 182 992 134 117 993 100 181 994 133 155 995 103 183 996 135 182 997 134 117 998 100 183 999 135 117 1000 100 125 1001 108 176 1002 128 183 1003 135 125 1004 108 125 1005 108 108 1006 92 176 1007 128 110 1008 94 135 1009 71 185 1010 137 110 1011 94 185 1012 137 184 1013 136 143 1014 79 185 1015 137 135 1016 71 185 1017 137 143 1018 79 186 1019 138 187 1020 139 143 1021 79 140 1022 76 143 1023 79 187 1024 139 186 1025 138 140 1026 76 141 1027 77 188 1028 140 140 1029 76 188 1030 140 187 1031 139 141 1032 77 157 1033 107 189 1034 141 141 1035 77 189 1036 141 188 1037 140 189 1038 141 121 1039 104 190 1040 142 121 1041 104 189 1042 141 157 1043 107 191 1044 143 190 1045 142 121 1046 104 191 1047 143 121 1048 104 127 1049 110 184 1050 136 191 1051 143 127 1052 110 127 1053 110 110 1054 94 184 1055 136</p></triangles>
        <triangles count="24" material="Material #38"><input semantic="VERTEX" offset="0" source="#SM_BoardProjectors_Tron_01_A_1-VERTEX"/><input semantic="NORMAL" offset="1" source="#SM_BoardProjectors_Tron_01_A_1-Normal0"/><input semantic="TEXCOORD" offset="2" set="0" source="#SM_BoardProjectors_Tron_01_A_1-UV0"/><p> 161 486 113 162 487 114 167 488 119 161 489 113 167 490 119 160 491 112 169 504 121 170 505 122 175 506 127 169 507 121 175 508 127 168 509 120 162 522 114 163 523 115 166 524 118 162 525 114 166 526 118 167 527 119 170 534 122 171 535 123 174 536 126 170 537 122 174 538 126 175 539 127 163 552 115 164 553 116 165 554 117 163 555 115 165 556 117 166 557 118 171 570 123 172 571 124 173 572 125 171 573 123 173 574 125 174 575 126 179 588 131 180 589 132 181 590 133 179 591 131 181 592 133 182 593 134 187 606 139 188 607 140 189 608 141 187 609 139 189 610 141 190 611 142 178 618 130 179 619 131 182 620 134 178 621 130 182 622 134 183 623 135 186 630 138 187 631 139 190 632 142 186 633 138 190 634 142 191 635 143 177 642 129 178 643 130 183 644 135 177 645 129 183 646 135 176 647 128 185 660 137 186 661 138 191 662 143 185 663 137 191 664 143 184 665 136</p></triangles>
        <triangles count="0" material="Material #37"><input semantic="VERTEX" offset="0" source="#SM_BoardProjectors_Tron_01_A_1-VERTEX"/><input semantic="NORMAL" offset="1" source="#SM_BoardProjectors_Tron_01_A_1-Normal0"/><input semantic="TEXCOORD" offset="2" set="0" source="#SM_BoardProjectors_Tron_01_A_1-UV0"/><p></p></triangles>
        <triangles count="0" material="Material #35 Slot #4"><input semantic="VERTEX" offset="0" source="#SM_BoardProjectors_Tron_01_A_1-VERTEX"/><input semantic="NORMAL" offset="1" source="#SM_BoardProjectors_Tron_01_A_1-Normal0"/><input semantic="TEXCOORD" offset="2" set="0" source="#SM_BoardProjectors_Tron_01_A_1-UV0"/><p></p></triangles>
        <triangles count="0" material="Material #35 Slot #5"><input semantic="VERTEX" offset="0" source="#SM_BoardProjectors_Tron_01_A_1-VERTEX"/><input semantic="NORMAL" offset="1" source="#SM_BoardProjectors_Tron_01_A_1-Normal0"/><input semantic="TEXCOORD" offset="2" set="0" source="#SM_BoardProjectors_Tron_01_A_1-UV0"/><p></p></triangles>
        <triangles count="0" material="Material #35 Slot #6"><input semantic="VERTEX" offset="0" source="#SM_BoardProjectors_Tron_01_A_1-VERTEX"/><input semantic="NORMAL" offset="1" source="#SM_BoardProjectors_Tron_01_A_1-Normal0"/><input semantic="TEXCOORD" offset="2" set="0" source="#SM_BoardProjectors_Tron_01_A_1-UV0"/><p></p></triangles>
        <triangles count="0" material="Material #35 Slot #7"><input semantic="VERTEX" offset="0" source="#SM_BoardProjectors_Tron_01_A_1-VERTEX"/><input semantic="NORMAL" offset="1" source="#SM_BoardProjectors_Tron_01_A_1-Normal0"/><input semantic="TEXCOORD" offset="2" set="0" source="#SM_BoardProjectors_Tron_01_A_1-UV0"/><p></p></triangles>
        <triangles count="0" material="Material #35 Slot #8"><input semantic="VERTEX" offset="0" source="#SM_BoardProjectors_Tron_01_A_1-VERTEX"/><input semantic="NORMAL" offset="1" source="#SM_BoardProjectors_Tron_01_A_1-Normal0"/><input semantic="TEXCOORD" offset="2" set="0" source="#SM_BoardProjectors_Tron_01_A_1-UV0"/><p></p></triangles>
        <triangles count="0" material="Material #35 Slot #9"><input semantic="VERTEX" offset="0" source="#SM_BoardProjectors_Tron_01_A_1-VERTEX"/><input semantic="NORMAL" offset="1" source="#SM_BoardProjectors_Tron_01_A_1-Normal0"/><input semantic="TEXCOORD" offset="2" set="0" source="#SM_BoardProjectors_Tron_01_A_1-UV0"/><p></p></triangles>
        <triangles count="0" material="Material #35 Slot #10"><input semantic="VERTEX" offset="0" source="#SM_BoardProjectors_Tron_01_A_1-VERTEX"/><input semantic="NORMAL" offset="1" source="#SM_BoardProjectors_Tron_01_A_1-Normal0"/><input semantic="TEXCOORD" offset="2" set="0" source="#SM_BoardProjectors_Tron_01_A_1-UV0"/><p></p></triangles>
      </mesh>
    </geometry>
  </library_geometries>
  <library_visual_scenes>
    <visual_scene id="SM_BoardProjectors_Tron_01_A_1" name="SM_BoardProjectors_Tron_01_A_1">
      <node name="SM_BoardProjectors_Tron_01_A_1" id="SM_BoardProjectors_Tron_01_A_1" layer="Enviro" sid="SM_BoardProjectors_Tron_01_A_1"><matrix sid="matrix">0.902469 0.000000 0.000000 0.000000 0.000000 0.902469 0.000000 0.000000 0.000000 0.000000 1.000000 0.000000 0.000000 0.000000 0.000000 1.000000</matrix><instance_geometry url="#SM_BoardProjectors_Tron_01_A_1-lib"><bind_material><technique_common><instance_material symbol="Material #36" target="#Material #36"/><instance_material symbol="Material #38" target="#Material #38"/><instance_material symbol="Material #37" target="#Material #37"/><instance_material symbol="Material #35 Slot #4" target="#Material #35 Slot #4"/><instance_material symbol="Material #35 Slot #5" target="#Material #35 Slot #5"/><instance_material symbol="Material #35 Slot #6" target="#Material #35 Slot #6"/><instance_material symbol="Material #35 Slot #7" target="#Material #35 Slot #7"/><instance_material symbol="Material #35 Slot #8" target="#Material #35 Slot #8"/><instance_material symbol="Material #35 Slot #9" target="#Material #35 Slot #9"/><instance_material symbol="Material #35 Slot #10" target="#Material #35 Slot #10"/></technique_common></bind_material></instance_geometry><extra><technique profile="FCOLLADA"><visibility>1.000000</visibility></technique></extra></node>
      <extra><technique profile="MAX3D"><frame_rate>60.000000</frame_rate></technique><technique profile="FCOLLADA"><start_time>0.000000</start_time><end_time>5.000000</end_time></technique></extra>
    </visual_scene>
  </library_visual_scenes>
  <scene>
    <instance_visual_scene url="#SM_BoardProjectors_Tron_01_A_1"></instance_visual_scene>
  </scene>
</COLLADA>
