[gd_scene load_steps=3 format=2]

[ext_resource path="res://tests/Enguerrand/Enviro/SM_BoardSideEffect_01_A_1.DAE" type="PackedScene" id=1]
[ext_resource path="res://tests/Enguerrand/Material/M_FX_VerticalNoise.tres" type="Material" id=2]

[node name="SM_BoardSideEffect_01_A_1" instance=ExtResource( 1 )]

[node name="SM_BoardSideEffect_01_A_1" parent="." index="0"]
material/0 = ExtResource( 2 )
