[gd_scene load_steps=4 format=2]

[ext_resource path="res://tests/Enguerrand/Enviro/SM_BoardProjectors_Tron_01_A_1.DAE" type="PackedScene" id=1]
[ext_resource path="res://tests/Enguerrand/Material/M_BoardSide.tres" type="Material" id=2]
[ext_resource path="res://tests/Enguerrand/Material/M_Light_01.tres" type="Material" id=3]

[node name="SM_BoardProjectors_Tron_01_A_1" instance=ExtResource( 1 )]

[node name="SM_BoardProjectors_Tron_01_A_1" parent="." index="0"]
material/0 = ExtResource( 2 )
material/1 = ExtResource( 3 )
